[
    {
        "title": "dorica castra",
        "content": "<a href='https://www.facebook.com/marine.montagne.35' target='_blank'>Marine Montagné</a> et <a href='https://www.facebook.com/Tim.Villemur' target='_blank'>Timothée Villemur</a> vous présentent <a href='#doricacastra' class='no_menu'>dorica castra</a>, une structure éditoriale protocolaire. Dans <a href='#manuel'>«manuel»</a> qui est le livre déclencheur de dorica castra, nous avons travaillé sur la manipulation du livre, en poussant à l’extrême ses possibilités d’utilisation, allant jusqu’à le dégrader. En suivant les logiques de fonctionnaent de dorica castra, nous avons extrait de <a href='#manuel'>«manuel»</a> la thématique de la destruction du livre. <a href='#ellipse'>èllipse</a>, La première publication de dorica castra est en cours de création, pour celle-ci nous collaborons avec <a href='https://www.facebook.com/alafdilism' target='_blank'>Ismail Alaoui Fdili</a>. <a href='#manuel'>«manuel»</a> est son propre manuel d’utilisation dans lequel sont énumérées 72 actions réalisables avec lui-même. Il est le déclencheur de dorica castra. N'hésitez pas à nous <a href='#contact'>contacter</a> pour toutes questions, des informations, des projets, commissions où collaborations !",
        "images": []
    },
    {
        "title": "manuel",
        "content": "Dans <a href='#manuel'>«manuel»</a> qui est le livre déclencheur de dorica castra, nous avons travaillé sur la manipulation du livre, en poussant à l’extrême ses possibilités d’utilisation, allant jusqu’à le dégrader. En suivant les logiques de fonctionnaent de dorica castra, nous avons extrait de <a href='#manuel'>«manuel»</a> la thématique de la destruction du livre. <a href='#ellipse'>èllipse</a>, La première publication de dorica castra est en cours de création, pour celle-ci nous collaborons avec <a href='https://www.facebook.com/alafdilism' target='_blank'>Ismail Alaoui Fdili</a>. <a href='#manuel'>«manuel»</a> est son propre manuel d’utilisation dans lequel sont énumérées 72 actions réalisables avec lui-même. Il est le déclencheur de dorica castra.",
        "images": []
    },
    {
        "title": "èllipse",
        "content": "<a href='#ellipse'>èllipse</a>, La première publication de dorica castra est en cours de création, pour celle-ci nous collaborons avec <a href='https://www.facebook.com/alafdilism' target='_blank'>Ismail Alaoui Fdili</a>. <a href='#manuel'>«manuel»</a> est son propre manuel d’utilisation dans lequel sont énumérées 72 actions réalisables avec lui-même. Il est le déclencheur de dorica castra.",
        "images": []
    },
    {
        "title": "marquee",
        "content": "pour la prochaine publication de dorica castra nous avons invité céline furet à été invitée à travailler avec nous pour la prochaine publication de dorica castra nous avons invité céline furet"
    }
]