<?xml version="1.0" standalone="no"?>
<!DOCTYPE svg PUBLIC "-//W3C//DTD SVG 20010904//EN"
 "http://www.w3.org/TR/2001/REC-SVG-20010904/DTD/svg10.dtd">
<svg version="1.0" xmlns="http://www.w3.org/2000/svg"
 width="600.000000pt" height="600.000000pt" viewBox="0 0 600.000000 600.000000"
 preserveAspectRatio="xMidYMid meet">
<metadata>
Created by potrace 1.11, written by Peter Selinger 2001-2013
</metadata>
<g transform="translate(0.000000,600.000000) scale(0.100000,-0.100000)"
fill="#000000" stroke="none">
<path d="M2415 4570 c-317 -56 -549 -165 -763 -358 -317 -286 -511 -748 -524
-1247 l-3 -100 175 -3 c96 -1 185 0 198 3 20 5 22 11 22 73 1 131 35 332 82
482 96 304 296 552 551 681 77 39 216 85 319 105 113 23 383 23 496 0 422 -82
722 -352 861 -774 66 -199 81 -314 92 -697 4 -176 11 -377 15 -447 4 -83 3
-128 -3 -128 -5 0 -59 57 -119 128 -60 70 -198 217 -306 327 l-197 200 -138
-138 -138 -137 535 -535 c294 -294 539 -535 545 -535 16 0 1065 1054 1065
1070 0 8 -59 74 -130 145 l-130 130 -171 -170 c-94 -94 -234 -241 -310 -327
-77 -87 -144 -158 -150 -158 -11 0 -11 4 6 245 34 465 13 779 -71 1067 -158
545 -533 928 -1039 1063 -212 57 -560 73 -770 35z"/>
</g>
</svg>
